<svg width="284" height="647" viewBox="0 0 284 647" fill="none" xmlns="http://www.w3.org/2000/svg">
<path d="M221.24 309.64H56.44V316.23H221.24V309.64Z" fill="#535461"/>
<path d="M63.86 298.93L81.16 299.01V320.35H63.86V298.93Z" fill="#535461"/>
<path d="M203.11 298.93L220.42 299.01V320.35H203.11V298.93Z" fill="#535461"/>
<g opacity="0.7">
<path opacity="0.7" d="M283.59 298.63C283.67 274.265 277.837 250.244 266.59 228.63C261.25 218.48 256.38 212.17 252.59 208.3C251.161 206.784 249.294 205.753 247.25 205.349C245.207 204.946 243.088 205.191 241.19 206.05C239.673 206.585 238.303 207.469 237.19 208.63C232.12 213.88 227.54 220.82 223.54 228.21C211.708 250.329 205.566 275.045 205.67 300.13V315.19H196.01V140.19C196.01 103.51 187.8 67.32 171.72 35.19C164.1 19.98 157.15 10.53 151.8 4.72001C150.504 3.24303 148.907 2.05966 147.117 1.24895C145.327 0.438254 143.385 0.0188904 141.42 0.0188904C139.455 0.0188904 137.513 0.438254 135.723 1.24895C133.932 2.05966 132.336 3.24303 131.04 4.72001C123.8 12.59 117.27 22.99 111.56 34.05C94.65 66.84 86.06 104.05 86.06 141.82V315.19H77.71V299.41C77.8136 274.325 71.6723 249.609 59.84 227.49C55.84 220.11 51.26 213.17 46.19 207.91C44.7307 206.373 42.8207 205.339 40.7357 204.958C38.6508 204.577 36.4987 204.868 34.59 205.79L34.94 205.98C33.7156 206.521 32.6083 207.296 31.68 208.26C27.93 212.13 23.06 218.44 17.68 228.59C6.43309 250.204 0.599488 274.225 0.679991 298.59V560.23H30.48L27.23 581.74V646.05H51.59V581.74L48.34 560.23H77.71V321.96H86.06V559.16H109.86L106.44 581.73V646.05H130.81V581.74L127.39 559.17H159.46L156.04 581.74V646.05H180.41V581.74L176.99 559.17H195.99V321.96H205.65V560.59H213.48V560.23H239.37L236.12 581.74V646.05H260.49V581.74L257.24 560.23H283.59V298.63Z" fill="url(#paint0_linear)"/>
</g>
<path d="M56.44 569.2H33.37L37.49 541.19H52.32L56.44 569.2Z" fill="#535461"/>
<path d="M254.2 569.2H231.13L235.25 541.19H250.08L254.2 569.2Z" fill="#535461"/>
<path d="M131.43 569.2H108.35L112.47 541.19H127.31L131.43 569.2Z" fill="#535461"/>
<path d="M178.39 569.2H155.32L159.44 541.19H174.27L178.39 569.2Z" fill="#535461"/>
<path d="M246.72 205.51C245.849 204.549 244.787 203.78 243.601 203.255C242.415 202.729 241.132 202.457 239.835 202.457C238.538 202.457 237.255 202.729 236.069 203.255C234.883 203.78 233.821 204.549 232.95 205.51C228.15 210.62 223.82 217.38 220.03 224.57C208.815 246.192 203.012 270.212 203.12 294.57V548.26H276.05V293.52C276.142 269.83 270.621 246.456 259.94 225.31C254.88 215.43 250.27 209.28 246.72 205.51Z" fill="#E0E0E0"/>
<path d="M37.59 205.51C38.4609 204.549 39.5234 203.78 40.7092 203.255C41.895 202.729 43.1778 202.457 44.475 202.457C45.7722 202.457 47.0549 202.729 48.2407 203.255C49.4266 203.78 50.4891 204.549 51.36 205.51C56.16 210.62 60.49 217.38 64.28 224.57C75.4953 246.192 81.2979 270.212 81.19 294.57V548.26H8.23998V293.52C8.14833 269.83 13.669 246.456 24.35 225.31C29.4 215.43 34.01 209.28 37.59 205.51Z" fill="#E0E0E0"/>
<path d="M8.64999 298.93L25.95 299.01V320.35H8.64999V298.93Z" fill="#535461"/>
<path d="M258.32 298.93L275.63 299.01V320.35H258.32V298.93Z" fill="#535461"/>
<g opacity="0.1">
<path opacity="0.1" d="M64.25 224.24C60.47 217.05 56.13 210.29 51.33 205.18C49.9735 203.682 48.1643 202.669 46.1782 202.295C44.1921 201.921 42.1382 202.207 40.33 203.11C41.3719 203.63 42.3132 204.331 43.11 205.18C47.91 210.29 52.24 217.05 56.03 224.24C67.2453 245.862 73.0479 269.882 72.94 294.24V547.91H81.18V294.27C81.2866 269.901 75.477 245.869 64.25 224.24V224.24Z" fill="black"/>
</g>
<g opacity="0.1">
<path opacity="0.1" d="M226.59 224.94C230.37 217.75 234.71 210.99 239.51 205.88C240.409 204.913 241.494 204.137 242.7 203.6C240.917 202.819 238.934 202.619 237.032 203.029C235.129 203.438 233.404 204.435 232.1 205.88C227.3 210.99 222.97 217.75 219.18 224.94C207.965 246.562 202.162 270.582 202.27 294.94V548.61H209.69V294.98C209.573 270.61 215.372 246.575 226.59 224.94V224.94Z" fill="black"/>
</g>
<path d="M56.44 569.2H33.37V631.82H56.44V569.2Z" fill="url(#paint1_linear)"/>
<path d="M131.42 569.2H108.35V631.82H131.42V569.2Z" fill="url(#paint2_linear)"/>
<path d="M178.39 569.2H155.32V631.82H178.39V569.2Z" fill="url(#paint3_linear)"/>
<path d="M254.2 569.2H231.13V631.82H254.2V569.2Z" fill="url(#paint4_linear)"/>
<path d="M151.29 6.61C150.085 5.17753 148.581 4.02593 146.884 3.23589C145.186 2.44586 143.337 2.0365 141.465 2.0365C139.593 2.0365 137.744 2.44586 136.046 3.23589C134.349 4.02593 132.845 5.17753 131.64 6.61C124.79 14.27 118.64 24.4 113.2 35.18C97.2 67.12 89.06 103.37 89.06 140.13V547.22H193.15V138.49C193.15 102.77 185.38 67.49 170.15 36.28C162.94 21.47 156.36 12.27 151.29 6.61Z" fill="#EEEEEE"/>
<path d="M156.54 51.83H124.23C118.155 51.83 113.23 56.7549 113.23 62.83V65.72C113.23 71.7951 118.155 76.72 124.23 76.72H156.54C162.615 76.72 167.54 71.7951 167.54 65.72V62.83C167.54 56.7549 162.615 51.83 156.54 51.83Z" fill="#2F55D4"/>
<g opacity="0.1">
<path opacity="0.1" d="M234.1 552.31H251.23L250.08 544.48H235.25L234.1 552.31Z" fill="black"/>
</g>
<g opacity="0.1">
<path opacity="0.1" d="M158.29 552.31H175.43L174.27 544.48H159.44L158.29 552.31Z" fill="black"/>
</g>
<g opacity="0.1">
<path opacity="0.1" d="M111.32 552.31H128.46L127.31 544.48H112.47L111.32 552.31Z" fill="black"/>
</g>
<g opacity="0.1">
<path opacity="0.1" d="M36.34 552.31H53.47L52.32 544.48H37.49L36.34 552.31Z" fill="black"/>
</g>
<g opacity="0.1">
<path opacity="0.1" d="M192.59 154.05H89.59V158.05H192.59V154.05Z" fill="black"/>
</g>
<defs>
<linearGradient id="paint0_linear" x1="142.14" y1="646.05" x2="142.14" y2="0.0500021" gradientUnits="userSpaceOnUse">
<stop stop-color="#808080" stop-opacity="0.25"/>
<stop offset="0.54" stop-color="#808080" stop-opacity="0.12"/>
<stop offset="1" stop-color="#808080" stop-opacity="0.1"/>
</linearGradient>
<linearGradient id="paint1_linear" x1="44.9" y1="569.2" x2="44.9" y2="631.83" gradientUnits="userSpaceOnUse">
<stop stop-color="#E0E0E0"/>
<stop offset="0.31" stop-color="#FCCC63"/>
<stop offset="0.77" stop-color="#F55F44"/>
</linearGradient>
<linearGradient id="paint2_linear" x1="9818.29" y1="39218.3" x2="9818.29" y2="43140.1" gradientUnits="userSpaceOnUse">
<stop stop-color="#E0E0E0"/>
<stop offset="0.31" stop-color="#FCCC63"/>
<stop offset="0.77" stop-color="#F55F44"/>
</linearGradient>
<linearGradient id="paint3_linear" x1="10948.9" y1="39218.3" x2="10948.9" y2="43140.1" gradientUnits="userSpaceOnUse">
<stop stop-color="#E0E0E0"/>
<stop offset="0.31" stop-color="#FCCC63"/>
<stop offset="0.77" stop-color="#F55F44"/>
</linearGradient>
<linearGradient id="paint4_linear" x1="12773.6" y1="39218.3" x2="12773.6" y2="43140.1" gradientUnits="userSpaceOnUse">
<stop stop-color="#E0E0E0"/>
<stop offset="0.31" stop-color="#FCCC63"/>
<stop offset="0.77" stop-color="#F55F44"/>
</linearGradient>
</defs>
</svg>
